Date Merging • eider
…
      date_merging.Rmd

library(eider)

1. Read in data

Here we are reading in data about patients stays where they can have multiple episodes in one stay

This is the original dataframe

smr04_data_filepath <- eider_example("random_smr04_data.csv")
initial_table <- read_data(smr04_data_filepath)[[1]]
initial_table
#> # A tibble: 193 × 6
#>       id admission_date discharge_date cis_marker episode_within_cis some_code
#>    <int> <date>         <date>              <int>              <int> <chr>    
#>  1    15 2016-11-18     2016-11-19              6                  1 b        
#>  2    14 2015-07-31     2015-07-31             14                  1 b        
#>  3    14 2015-07-31     2015-08-01             14                  2 d        
#>  4    19 2017-05-22     2017-05-24             52                  1 c        
#>  5    11 2016-08-19     2016-08-21             28                  1 d        
#>  6    14 2015-02-15     2015-02-16             15                  1 a        
#>  7     7 2016-10-19     2016-10-20             27                  1 e        
#>  8     7 2016-10-20     2016-10-20             27                  2 d        
#>  9     4 2016-08-06     2016-08-07             79                  1 b        
#> 10     4 2016-08-07     2016-08-10             79                  2 d        
#> # ℹ 183 more rows
…
