Preprocessing • eider
…
For example, consider the following dataframe. The loading of data here is only shown for illustrative purposes: when using eider you do not need to do any of this as it is all handled internally.

smr04_data_filepath <- eider_example("random_smr04_data.csv")

initial_table <- smr04_data_filepath %>%
  utils::read.csv() %>%
  tibble::as_tibble() %>%
  dplyr::mutate(
    admission_date = lubridate::ymd(admission_date),
    discharge_date = lubridate::ymd(discharge_date)
  )

initial_table
#> # A tibble: 190 × 7
#>       id admission_date discharge_date cis_marker episode_within_cis
#>    <int> <date>         <date>              <int>              <int>
#>  1    16 2015-12-04     2015-12-07             89                  1
#>  2    10 2015-11-03     2015-11-04             19                  1
#>  3    10 2015-11-04     2015-11-04             19                  2
#>  4    15 2016-02-08     2016-02-09             72                  1
#>  5    15 2016-02-09     2016-02-10             72                  2
#>  6    17 2017-07-30     2017-08-01             80                  1
#>  7    17 2017-08-01     2017-08-02             80                  2
#>  8    14 2017-01-08     2017-01-08             78                  1
#>  9    14 2017-01-08     2017-01-09             78                  2
#> 10    14 2017-01-09     2017-01-11             78                  3
#> # ℹ 180 more rows
#> # ℹ 2 more variables: admission_type <int>, specialty <chr>
…
